order, a, x, w
3, 1,  1.666666666666667e-1, 5.000000000000000e-1
4, 2,  2.000000000000000e-1, 5.208333333333333e-1
4, 2,  1.000000000000000e+0, 9.791666666666667e-1
5, 2,  2.245784979812614e-1, 5.540781643606372e-1
5, 2,  1.013719374359164e+0, 9.459218356393628e-1
6, 3,  2.250991042610971e-1, 5.549724327164180e-1
6, 3,  1.014269060987992e+0, 9.451317411845473e-1
6, 3,  2.000000000000000e+0, 9.998958260990347e-1
7, 3,  2.180540672543505e-1, 5.408088967208193e-1
7, 3,  1.001181873031216e+0, 9.516615045823566e-1
7, 3,  1.997580526418033e+0, 1.007529598696824e+0
8, 4,  2.087647422032129e-1, 5.207988277246498e-1
8, 4,  9.786087373714483e-1, 9.535038018555888e-1
8, 4,  1.989541386579751e+0, 1.024871626402471e+0
8, 4,  3.000000000000000e+0, 1.000825744017291e+0
12, 5, 7.023955461621939e-2, 1.922315977843698e-1
12, 5, 4.312297857227970e-1, 5.348399530514687e-1
12, 5, 1.117752734518115e+0, 8.170209442488760e-1
12, 5, 2.017343724572518e+0, 9.592111521445966e-1
12, 5, 3.000837842847590e+0, 9.967143408044999e-1
12, 5, 4.000000000000000e+0, 9.999820119661890e-1
16, 7, 9.919337841451028e-2, 2.528198928766921e-1
16, 7, 5.076592669645529e-1, 5.550158230159486e-1
16, 7, 1.184972925827278e+0, 7.852321453615224e-1
16, 7, 2.047493467134072e+0, 9.245915673876714e-1
16, 7, 3.007168911869310e+0, 9.839350200445296e-1
16, 7, 4.000474996776184e+0, 9.984463448413151e-1
16, 7, 5.000007879022339e+0, 9.999592378464547e-1
16, 7, 6.000000000000000e+0, 9.999999686258662e-1
