0.002132196162046851, -6.48142857142857
0.11727078891258014, -6.485714285714285
0.29211087420042636, -6.442857142857142
0.4541577825159915, -6.374285714285714
0.6119402985074627, -6.275714285714285
0.7356076759061834, -6.155714285714285
0.8678038379530917, -5.9799999999999995
0.9488272921108742, -5.735714285714286
0.9658848614072495, -5.529999999999999
0.9488272921108742, -5.337142857142856
0.8891257995735611, -5.144285714285714
0.8081023454157781, -4.951428571428571
0.7100213219616203, -4.775714285714286
0.5906183368869935, -4.565714285714286
0.47547974413646066, -4.402857142857142
0.34754797441364604, -4.244285714285715
0.18550106609808092, -4.094285714285714
0.036247334754797356, -4.042857142857143
-0.1684434968017059, -4.09
-0.3049040511727079, -4.201428571428572
-0.4498933901918978, -4.372857142857143
-0.582089552238806, -4.578571428571429
-0.697228144989339, -4.767142857142857
-0.7867803837953093, -4.942857142857143
-0.9061833688699361, -5.182857142857142
-0.9573560767590619, -5.405714285714286
-0.9701492537313434, -5.628571428571428
-0.9275053304904053, -5.834285714285714
-0.8379530916844351, -6.014285714285714
-0.7569296375266525, -6.1342857142857135
-0.6460554371002133, -6.237142857142857
-0.4925373134328359, -6.348571428571428
-0.330490405117271, -6.429999999999999
-0.18123667377398722, -6.48142857142857
