StoneSimulation,,StoneFirstOrder,,StoneSecondOrder,
0.10055860333952611,0.33372917550101444,0.12261963212349515,0.3014586894803597,0.09617211432961326,0.3048425220058454
0.09895836146062909,0.3102638799885145,0.11744140806985585,0.28192392604438626,0.09597005417554857,0.29680556321463136
0.09556380411612471,0.275376842377487,0.11305864612470838,0.2624081782449708,0.0953686656537671,0.2847429941641011
0.09297056569617196,0.25523452935348734,0.108279484219874,0.2462296746614741,0.09437061095338697,0.2753483189226501
0.08978152935158581,0.23708600582258788,0.10230579805774291,0.22667589558894274,0.0931715609745894,0.2605940865173432
0.08380384990577752,0.20749197064746333,0.09673090782550493,0.2098090259620486,0.09137671307115844,0.2478336436051365
0.07623498002407379,0.17719055379238347,0.090957152066144,0.19293740242601487,0.08918333545674609,0.23305564165413212
0.06886710542078753,0.15224869410115932,0.0861793212558687,0.18010565087671593,0.08699155515580462,0.22229374214416509
0.0630936158803384,0.13604642097196523,0.08020749862612027,0.16523732465206137,0.08480004107377498,0.21220119304103763
0.05493107782529576,0.11309359686470183,0.07403627803142525,0.14902554370458831,0.08260879321065712,0.2027779943447497
0.04876012344951254,0.0975511663240683,0.06985610867816607,0.13888545551006587,0.07802716573838668,0.18325749263619473
0.040798580672887316,0.07995789938066061,0.06547694068832802,0.12840593820298435,0.07384486663383301,0.16776260118695602
0.03403102971573525,0.0644012071126086,0.05930665185982434,0.11453688367944959,0.06986223171313773,0.15428051486737543
0.026269417341880225,0.04949009570569873,0.0509471118100414,0.09626475851092353,0.0646858711918811,0.1394312042792788
0.019502665041463595,0.035941454658165395,0.04617087831323698,0.0874491094026617,0.05871271746757359,0.12121612602042658
0.010546794629223612,0.018324418169060386,0.0415932441246437,0.07796886379670004,0.052343163783579255,0.10633829197749306
0.0007957283274036241,0.0013577164502369676,0.03621961538973498,0.06713090174050118,0.0469690026108469,0.09416162910761516
,,0.03204051091212304,0.059668215173337036,0.042589435292641156,0.08267808619027422
,,0.025473156576652983,0.04746302884862219,0.0384103308150292,0.07521539962311008
,,0.02149265140725218,0.03933574578375798,0.031045917057596458,0.05897509522080008
,,0.013930170779431924,0.025098738692827083,0.022289178391391242,0.04203216304767404
,,0.0073628164439618685,0.012893552368112293,0.01572129161809756,0.02848827590928016
,,0.0005968628002806682,0.0013529625410975132,0.0063679563705234775,0.01153108200873576
,,,,0.0005968628002806682,0.0013529625410975132
